{
  "page": 1,
  "total_results": 389371,
  "total_pages": 19469,
  "results": [
    {
      "vote_count": 249,
      "id": 353081,
      "video": false,
      "vote_average": 7.5,
      "title": "Missao: Impossivel - Efeito Fallout",
      "popularity": 465.786,
      "poster_path": "/kVv60GGRuh3kF6KI5Hn2T7QWWx0.jpg",
      "original_language": "en",
      "original_title": "Mission: Impossible - Fallout",
      "genre_ids": [
        12,
        28,
        53
      ],
      "backdrop_path": "/5qxePyMYDisLe8rJiBYX8HKEyv2.jpg",
      "adult": false,
      "overview": "Quando uma importante missao nao sai como o planejado, Ethan Hunt (Tom Cruise) salvao  mundo",
      "release_date": "2018-07-25"
    }
  ]
}